// Jest Snapshot v1, https://goo.gl/fbAQLP

exports[`<WidgetForm /> Enzyme Static HTML <WidgetForm /> renders 1`] = `"\\"<div><label for=\\\\\\"name-input\\\\\\">Name:</label><input type=\\\\\\"text\\\\\\" id=\\\\\\"name-input\\\\\\" name=\\\\\\"name\\\\\\" value=\\\\\\"\\\\\\"></div><div><label for=\\\\\\"description-input\\\\\\">Description:</label><input type=\\\\\\"text\\\\\\" id=\\\\\\"description-input\\\\\\" name=\\\\\\"description\\\\\\" value=\\\\\\"\\\\\\"></div><div><label for=\\\\\\"size-input\\\\\\">Size:</label><input type=\\\\\\"text\\\\\\" id=\\\\\\"size-input\\\\\\" name=\\\\\\"size\\\\\\" value=\\\\\\"\\\\\\"></div><div><label for=\\\\\\"color-input\\\\\\">Color:</label><input type=\\\\\\"text\\\\\\" id=\\\\\\"color-input\\\\\\" name=\\\\\\"color\\\\\\" value=\\\\\\"\\\\\\"></div><div><label for=\\\\\\"price-input\\\\\\">Price:</label><input type=\\\\\\"number\\\\\\" id=\\\\\\"price-input\\\\\\" name=\\\\\\"price\\\\\\" value=\\\\\\"0\\\\\\"></div><div><label for=\\\\\\"quantity-input\\\\\\">Quantity:</label><input type=\\\\\\"number\\\\\\" id=\\\\\\"quantity-input\\\\\\" name=\\\\\\"quantity\\\\\\" value=\\\\\\"0\\\\\\"></div><button type=\\\\\\"button\\\\\\">Add Widget</button>\\""`;
